<svg width="73" height="11" viewBox="0 0 73 11" fill="none" xmlns="http://www.w3.org/2000/svg">
<g clip-path="url(#clip0)">
<path d="M6.84226 0.847063L10.4325 4.16834L9.24073 8.82259L4.46015 10.1556L0.871304 6.8356L2.06304 2.18135L6.84226 0.847063ZM7.0577 0L6.62682 0.114255L1.84351 1.45511L1.41127 1.57593L1.29673 1.99881L0.109083 6.65437L0 7.07462L0.32725 7.37667L3.91746 10.6979L4.24471 11L4.67559 10.8831L9.45753 9.5462L9.88978 9.42538L9.99886 9.00119L11.1906 4.34694L11.3024 3.92276L10.9752 3.6207L7.38631 0.30074L7.0577 0Z" fill="#EEEEEE"/>
<path d="M19.6418 8.38794C19.4168 8.534 19.1621 8.63247 18.8946 8.67686C18.588 8.7358 18.276 8.76527 17.9633 8.76485C17.5923 8.76639 17.2236 8.70824 16.8725 8.59281C16.5248 8.47836 16.21 8.28671 15.9535 8.03335C15.6718 7.74809 15.4574 7.40765 15.3249 7.03526C15.1576 6.55617 15.0787 6.0526 15.0917 5.54732C15.0762 5.02802 15.1651 4.51072 15.3535 4.02392C15.5035 3.65053 15.7362 3.31309 16.0353 3.03503C16.3011 2.79213 16.619 2.60833 16.9666 2.49658C17.2993 2.38904 17.6478 2.33405 17.9988 2.33374C18.3108 2.32948 18.6226 2.35323 18.9301 2.40465C19.1447 2.44132 19.3552 2.49761 19.5587 2.57275L19.3105 3.59711C19.1504 3.52614 18.9805 3.47792 18.806 3.45396C18.5739 3.42166 18.3396 3.40673 18.1051 3.40931C17.8726 3.40121 17.6412 3.44431 17.4285 3.53535C17.2158 3.62638 17.0275 3.76293 16.8779 3.93462C16.5689 4.28483 16.4143 4.82458 16.4143 5.55389C16.4112 5.84797 16.4484 6.14116 16.5248 6.4259C16.588 6.66669 16.7001 6.89301 16.8548 7.09173C17.0031 7.27653 17.1947 7.42501 17.4138 7.52512C17.6579 7.63243 17.9241 7.68497 18.1924 7.67877C18.4273 7.68384 18.6618 7.65732 18.8892 7.59997C19.0627 7.55331 19.2291 7.48487 19.3841 7.39641L19.6418 8.38794Z" fill="#EEEEEE"/>
<path d="M21.6803 6.34314L19.5778 2.45715L21.0777 2.45715L22.2517 4.77903L22.3798 5.43566H22.4248L22.5612 4.76458L23.6984 2.45978L25.0456 2.45978L22.9457 6.33657V8.63874H21.6899L21.6803 6.34314Z" fill="#EEEEEE"/>
<path d="M30.1193 3.89649C30.1186 4.05061 30.0985 4.20408 30.0593 4.35351C30.0206 4.50365 29.9536 4.64566 29.8616 4.77244C29.7674 4.90477 29.6491 5.01956 29.5125 5.11127C29.3517 5.21455 29.1722 5.28804 28.9834 5.32796V5.38443C29.1614 5.41491 29.3345 5.46698 29.4989 5.5394C29.6578 5.60728 29.8015 5.70455 29.9216 5.82569C30.0477 5.95587 30.1455 6.10903 30.2093 6.27615C30.2835 6.47708 30.3191 6.68936 30.3143 6.90258C30.3235 7.19328 30.2509 7.48097 30.1043 7.73519C29.9675 7.9644 29.7764 8.15924 29.5466 8.30384C29.2999 8.45561 29.0284 8.56616 28.7435 8.63085C28.4404 8.70208 28.1295 8.7378 27.8176 8.73722H27.4181C27.2563 8.73722 27.0822 8.73285 26.8959 8.72409C26.7095 8.71534 26.52 8.7022 26.3273 8.68469C26.1498 8.66956 25.9735 8.64324 25.7996 8.6059V2.50179C25.9155 2.4834 26.0491 2.46633 26.1991 2.44926C26.3491 2.43219 26.5086 2.41643 26.6804 2.40461C26.8522 2.39279 27.0267 2.3836 27.2081 2.37834C27.3895 2.37309 27.5667 2.36915 27.744 2.36915C28.0371 2.36863 28.3298 2.39058 28.6194 2.43481C28.8835 2.47368 29.1394 2.55305 29.3775 2.66989C29.5993 2.77622 29.7875 2.93761 29.9229 3.13742C30.0634 3.36676 30.1316 3.63048 30.1193 3.89649ZM27.4331 5.05349C27.519 5.05349 27.6185 5.05349 27.7317 5.04429C27.823 5.04009 27.914 5.03133 28.0044 5.01803C28.2247 4.95654 28.4294 4.85192 28.6057 4.71072C28.6881 4.64319 28.7535 4.55864 28.7972 4.46336C28.8409 4.36809 28.8616 4.26455 28.858 4.16046C28.8633 4.02961 28.8317 3.89981 28.7666 3.78486C28.7077 3.68764 28.6242 3.60632 28.5239 3.54847C28.4178 3.48848 28.3015 3.44713 28.1803 3.42634C28.0454 3.40215 27.9085 3.39028 27.7712 3.39088C27.6122 3.39088 27.4654 3.39394 27.3308 3.40007C27.2263 3.4032 27.1221 3.41197 27.0186 3.42634V5.05349H27.4331ZM27.8312 7.71156C27.9784 7.71171 28.125 7.69406 28.2676 7.65902C28.4012 7.62721 28.5277 7.57249 28.6412 7.49749C28.75 7.42624 28.8408 7.33246 28.9071 7.22302C28.9758 7.10246 29.0101 6.96652 29.0066 6.82903C29.0154 6.6697 28.9746 6.51148 28.8894 6.37464C28.8126 6.26285 28.7068 6.17231 28.5826 6.11199C28.45 6.0488 28.3069 6.00878 28.1599 5.99379C28.0046 5.97641 27.8485 5.96764 27.6922 5.96753H27.0349V7.65902C27.0817 7.67383 27.1303 7.68266 27.1795 7.68529C27.2449 7.69142 27.3154 7.6958 27.3908 7.69842L27.6253 7.70762L27.8312 7.71156Z" fill="#EEEEEE"/>
<path d="M31.4515 2.45715L35.2558 2.45715V3.52879L32.7101 3.52879V4.97339H35.0281V6.05028H32.7101V7.56054L35.3008 7.56054V8.63743H31.4515V2.45715Z" fill="#EEEEEE"/>
<path d="M36.4694 2.51508C36.6103 2.49144 36.7616 2.46955 36.9234 2.44941C37.0852 2.42928 37.2475 2.41308 37.4102 2.40082C37.572 2.38944 37.7293 2.38069 37.882 2.37456C38.0347 2.36843 38.1752 2.36536 38.3033 2.36536C38.6002 2.36482 38.8965 2.3912 39.1883 2.44416C39.4627 2.49159 39.7266 2.58446 39.9682 2.71864C40.1952 2.84812 40.3831 3.03235 40.5136 3.25314C40.6599 3.51451 40.7309 3.80876 40.7195 4.10545C40.74 4.54484 40.6113 4.97869 40.3527 5.34125C40.1083 5.65656 39.7643 5.88698 39.3723 5.99788L39.8155 6.27105L41.2827 8.63494H39.84L38.3783 6.21983L37.7184 6.10557V8.64019H36.4694V2.51508ZM38.3947 3.44225C38.2665 3.44225 38.1397 3.44225 38.0143 3.45144C37.9169 3.45374 37.82 3.46562 37.7252 3.4869V5.28346H38.257C38.5539 5.29822 38.8475 5.21736 39.0915 5.05364C39.3014 4.90042 39.4064 4.6474 39.4064 4.29457C39.4119 4.17979 39.3916 4.06522 39.3469 3.9587C39.3022 3.85218 39.2341 3.7562 39.1474 3.67733C38.9343 3.51273 38.6644 3.43202 38.392 3.45144L38.3947 3.44225Z" fill="#EEEEEE"/>
<path d="M46.5187 5.36735L46.0142 4.39553H45.9678L46.1151 5.36735V8.59145H44.9233V2.36389H45.8396L48.2695 5.65759L48.7549 6.60183H48.7999L48.6526 5.65759V2.40854L49.8444 2.40854V8.63478H48.9267L46.5187 5.36735Z" fill="#EEEEEE"/>
<path d="M51.1765 2.40869L54.9822 2.40869V3.48558L52.4323 3.48558V4.93018H54.7504V6.00707H52.4323V7.51733L55.0231 7.51733V8.59159H51.1765V2.40869Z" fill="#EEEEEE"/>
<path d="M58.301 6.04115L58.466 7.09177H58.5124L58.6965 6.02671L59.9237 2.40601H61.2436L58.8601 8.63487H57.9615L55.559 2.40863L57.0166 2.40863L58.301 6.04115Z" fill="#EEEEEE"/>
<path d="M61.4004 5.4986C61.4004 4.46812 61.6358 3.6749 62.1067 3.11895C62.5776 2.563 63.2498 2.28589 64.1234 2.28765C64.5364 2.2789 64.9464 2.35735 65.3247 2.51747C65.66 2.66622 65.9526 2.89163 66.1769 3.17411C66.4134 3.47737 66.5849 3.82289 66.6814 4.19058C66.7957 4.61952 66.8512 5.06104 66.8464 5.50386C66.8464 6.53434 66.6096 7.32756 66.136 7.88351C65.6624 8.43947 64.9915 8.71744 64.1234 8.71744C63.7072 8.72685 63.2939 8.64841 62.9125 8.48762C62.5777 8.3399 62.2862 8.11424 62.0644 7.83098C61.8299 7.52612 61.6599 7.17986 61.564 6.81188C61.4501 6.38288 61.3951 5.94137 61.4004 5.4986ZM62.7203 5.4986C62.7177 5.78768 62.7451 6.07629 62.8021 6.36011C62.8479 6.59675 62.933 6.8247 63.0544 7.03514C63.1589 7.21484 63.3084 7.36652 63.4893 7.4764C63.6805 7.58573 63.8998 7.64082 64.122 7.6353C64.3249 7.64346 64.5267 7.60153 64.708 7.5135C64.8894 7.42547 65.0444 7.29426 65.1583 7.13232C65.4028 6.797 65.5251 6.25242 65.5251 5.4986C65.527 5.21713 65.501 4.93613 65.4474 4.65942C65.4034 4.42197 65.3215 4.1925 65.2047 3.97914C65.1017 3.79548 64.9514 3.64037 64.7683 3.52869C64.4915 3.37676 64.1661 3.32878 63.8547 3.394C63.5433 3.45921 63.268 3.63301 63.0816 3.88196C62.8426 4.22254 62.723 4.76273 62.723 5.50254L62.7203 5.4986Z" fill="#EEEEEE"/>
<path d="M67.974 2.4087C68.1022 2.39119 68.2472 2.37631 68.409 2.36405C68.5708 2.35179 68.7376 2.34304 68.9094 2.33779C69.0803 2.33166 69.2471 2.32728 69.4099 2.32465H69.8448C70.3397 2.31229 70.8326 2.3889 71.2984 2.55054C71.675 2.68578 72.0119 2.90705 72.2801 3.19536C72.5347 3.48266 72.7209 3.82021 72.8256 4.18425C72.9458 4.59524 73.0046 5.02065 73.0001 5.44763C73.0013 5.85608 72.9458 6.26287 72.8351 6.65715C72.732 7.03524 72.5461 7.38768 72.2897 7.6907C72.0146 8.00413 71.6678 8.25183 71.2766 8.41432C70.7844 8.61059 70.2546 8.70413 69.7221 8.68879C69.6239 8.68879 69.4944 8.68879 69.3321 8.6796L68.8276 8.65727L68.3286 8.63101C68.1695 8.62225 68.0504 8.61218 67.9713 8.6008L67.974 2.4087ZM69.9498 3.3976C69.8153 3.3976 69.6789 3.40067 69.5408 3.40679C69.438 3.40947 69.3356 3.41824 69.234 3.43306V7.57513C69.2749 7.58295 69.3164 7.58734 69.358 7.58827L69.5462 7.59746L69.7385 7.60665H69.8748C70.1799 7.61656 70.4828 7.55433 70.757 7.42542C70.9828 7.31297 71.1752 7.14713 71.3161 6.94345C71.4582 6.73255 71.5564 6.49704 71.6052 6.25004C71.6603 5.98411 71.6877 5.71355 71.687 5.44237C71.6877 5.19692 71.664 4.95196 71.6161 4.71088C71.5705 4.47697 71.4778 4.2539 71.3434 4.05424C71.207 3.85578 71.0227 3.69219 70.8061 3.57752C70.5415 3.44759 70.2466 3.38562 69.9498 3.3976Z" fill="#EEEEEE"/>
</g>
<defs>
<clipPath id="clip0">
<rect width="73" height="11" fill="white"/>
</clipPath>
</defs>
</svg>
