<svg width="251" height="60" viewBox="0 0 251 60" fill="none" xmlns="http://www.w3.org/2000/svg">
<path d="M31.3756 0L41.07 19.645L62.7501 22.7961L47.0623 38.0866L50.7655 59.6794L31.3756 49.4853L11.9846 59.6794L15.6878 38.0866L0 22.7961L21.6801 19.645L31.3756 0Z" fill="url(#paint0_linear)"/>
<path d="M125.501 1.61435e-09L135.195 19.645L156.875 22.7961L141.187 38.0866L144.891 59.6794L125.501 49.4853L106.11 59.6794L109.813 38.0866L94.125 22.7961L115.805 19.645L125.501 1.61435e-09Z" fill="url(#paint1_linear)"/>
<path d="M219.626 3.23871e-09L229.32 19.645L251 22.7961L235.312 38.0866L239.016 59.6794L219.626 49.4853L200.235 59.6794L203.938 38.0866L188.25 22.7961L209.93 19.645L219.626 3.23871e-09Z" fill="url(#paint2_linear)"/>
<defs>
<linearGradient id="paint0_linear" x1="410" y1="-29.9937" x2="6.00023" y2="63.5063" gradientUnits="userSpaceOnUse">
<stop offset="1" stop-color="#C29239"/>
</linearGradient>
<linearGradient id="paint1_linear" x1="410" y1="-29.9937" x2="6.00023" y2="63.5063" gradientUnits="userSpaceOnUse">
<stop offset="1" stop-color="#C29239"/>
</linearGradient>
<linearGradient id="paint2_linear" x1="410" y1="-29.9937" x2="6.00023" y2="63.5063" gradientUnits="userSpaceOnUse">
<stop offset="1" stop-color="#C29239"/>
</linearGradient>
</defs>
</svg>
